…
## What is the average daily activity pattern?

```r
#we have already grouped our data by day so we proceed to apply mean and median fun on summarise

group_by(activity1,day)%>%summarise(mean_steps=mean(steps,na.rm = T),median_steps = median(steps,na.rm = T))
```

```
## # A tibble: 31 x 3
##      day mean_steps median_steps
##    <int>      <dbl>        <int>
##  1     1          0            0
##  2     2      10726        10726
##  3     3      21923        21923
##  4     4      12116        12116
##  5     5      23733        23733
##  6     6      23754        23754
##  7     7      23898        23898
##  8     8       3219         3219
##  9     9      12811        12811
## 10    10       9900         9900
## # ... with 21 more rows
```
…
